set terminal jpeg size 1200,1200
set output 'appliance-power-cost-heatmap.jpg'
set title ""
unset key
set tic scale 0
# Color runs from white to green
set palette rgbformula 2,-8,-8
set cbrange [-100:100]
set cblabel "COST" font 'arial bold,26'
unset cbtics
set xrange [0.5:23.5]
set yrange [0.5:19.5]
set xlabel "TIME" font 'arial bold,26'
set ylabel "COST(LOAD)" font 'arial bold,26'
$map1 << EOD
-11 82 -97 45 36 -94 87 -21 -59 99 -72 -3 77 -98 52 29 -91 91 -29 -52 98 -77 3 72
63 -63 -88 28 99 9 -95 -47 77 77 -47 -95 10 99 28 -88 -62 63 87 -29 -99 -8 95 46
1 12 -26 39 -52 63 -73 82 -89 95 -98 99 -99 96 -92 86 -77 68 -57 45 -32 18 -4 -9
-28 -65 -90 -99 -92 -69 -34 6 46 78 96 98 83 54 15 -25 -62 -88 -99 -93 -71 -37 3 43
-50 25 1 -29 53 -74 89 -98 99 -93 79 -60 36 -9 -17 43 -66 84 -95 99 -96 86 -69 46
-28 -90 53 76 -74 -55 89 31 -98 -4 99 -23 -93 48 79 -70 -60 87 36 -97 -9 99 -17 -95
63 -86 98 -98 86 -64 34 0 -34 64 -86 98 -98 86 -63 33 0 -34 64 -87 98 -98 86 -63
55 98 77 5 -70 -99 -64 13 82 97 48 -32 -91 -91 -31 49 97 81 12 -65 -99 -69 6 78
-38 -2 34 66 89 99 96 79 51 16 -20 -55 -81 -97 -99 -87 -62 -30 6 42 73 92 99 93
51 -89 99 -79 36 18 -68 96 -95 65 -16 -38 81 -99 87 -48 -4 56 -91 98 -75 29 25 -72
1 47 -84 99 -88 54 -5 -44 82 -99 90 -57 10 40 -80 99 -92 61 -14 -36 77 -98 93 -64
-2 -31 -57 -78 -92 -99 -97 -87 -70 -47 -19 9 37 62 82 95 99 96 84 65 41 13 -15 -43
51 28 3 -20 -44 -65 -81 -93 -99 -99 -92 -80 -62 -41 -18 6 31 53 73 87 96 99 96 87
90 -71 -41 99 -25 -82 81 27 -99 40 72 -89 -11 97 -54 -60 95 -4 -92 67 47 -98 20 85
-73 58 87 -39 -95 17 99 4 -98 -26 92 47 -81 -66 67 81 -48 -92 28 98 -6 -99 -16 96
-73 45 -11 -24 56 -81 96 -99 89 -68 37 -3 -32 63 -86 98 -98 85 -61 30 5 -39 69 -90
95 -3 -97 -49 69 88 -20 -99 -34 80 78 -37 -99 -17 89 66 -53 -96 0 96 52 -67 -89 17
77 84 -24 -99 -38 75 86 -20 -99 -41 73 87 -17 -98 -44 70 89 -14 -98 -47 68 90 -11 -97
25 -26 28 -30 31 -33 34 -36 37 -39 41 -42 44 -45 46 -48 49 -51 52 -54 55 -56 58 -59
0 95 -57 -61 93 4 -96 53 65 -91 -9 97 -48 -68 89 14 -98 44 72 -87 -19 99 -39 -75
EOD
$map2 << EOD
16 -75 99 -78 20 46 -92 95 -54 -11 71 -99 81 -26 -41 89 -97 59 5 -67 99 -84 31 36
-53 38 97 73 -12 -88 -89 -14 72 97 39 -52 -99 -62 28 94 80 -1 -82 -93 -24 65 99 49
96 0 -96 49 71 -86 -26 99 -25 -86 70 49 -96 0 96 -50 -70 86 25 -99 26 86 -71 -49
14 60 91 99 83 47 0 -48 -84 -99 -90 -59 -13 35 76 97 95 69 27 -22 -66 -94 -98 -79
83 -13 -66 99 -64 -15 85 -95 39 43 -96 82 -11 -67 99 -62 -17 86 -94 37 45 -97 81 -9
-84 81 -77 74 -70 65 -61 56 -51 46 -41 35 -30 24 -19 13 -7 1 3 -9 15 -21 26 -32
74 -83 -31 99 -20 -89 67 54 -95 -4 97 -45 -73 84 30 -99 21 88 -67 -53 95 3 -97 46
-2 -96 -50 68 88 -20 -99 -34 80 79 -36 -99 -18 89 67 -52 -96 0 95 53 -66 -90 16 99
-84 -37 97 2 -98 32 87 -63 -64 86 33 -98 1 98 -36 -84 67 61 -88 -29 99 -5 -97 40
55 89 -35 -96 13 99 9 -97 -31 90 51 -79 -69 63 83 -45 -93 24 99 -1 -99 -20 94 41
-53 90 -99 78 -33 -21 69 -97 94 -63 13 41 -83 99 -86 46 7 -59 92 -98 74 -27 -27 74
-83 -6 75 98 44 -44 -98 -75 6 83 94 31 -55 -99 -65 19 89 89 18 -66 -99 -54 32 94
-42 -70 -89 -99 -97 -85 -64 -35 -3 29 59 82 96 99 92 74 48 17 -15 -47 -73 -91 -99 -96
-90 61 63 -89 -24 99 -19 -91 59 65 -88 -27 99 -16 -92 57 67 -86 -29 99 -14 -93 55 69
-24 58 99 69 -11 -83 -95 -39 45 97 79 4 -73 -99 -53 30 92 88 20 -62 -99 -66 15 85
91 99 96 83 61 31 0 -33 -62 -84 -97 -99 -90 -71 -44 -13 19 50 76 93 99 95 80 57
-27 90 55 -73 -78 49 93 -20 -99 -9 96 39 -84 -65 64 85 -38 -97 8 99 22 -92 -50 77
-99 -94 -69 -30 15 57 87 99 91 64 23 -21 -62 -90 -99 -88 -59 -17 28 67 93 99 85 53
-73 8 84 94 30 -57 -99 -64 21 90 88 17 -67 -99 -53 34 95 81 3 -76 -97 -41 46 98
86 -85 84 -83 82 -81 80 -79 78 -77 76 -75 74 -73 71 -70 69 -68 67 -65 64 -63 62 -60
EOD
$map3 << EOD
99 -19 -93 52 74 -78 -46 95 12 -99 23 91 -55 -71 81 42 -96 -8 99 -27 -89 59 68 -83
99 12 -96 -41 83 67 -62 -86 36 97 -6 -99 -24 92 52 -75 -76 52 92 -24 -99 -6 97 36
65 99 55 -31 -94 -83 -6 75 98 44 -44 -98 -75 6 83 94 31 -55 -99 -65 19 89 89 18
-53 99 -51 -45 99 -59 -37 98 -66 -28 96 -72 -19 93 -78 -10 90 -84 -1 85 -88 7 80 -92
73 -29 -22 68 -95 97 -72 28 23 -68 95 -97 72 -27 -24 69 -96 96 -71 26 25 -70 96 -96
-13 -9 -4 0 3 7 11 15 19 23 28 31 35 39 43 47 50 54 57 61 64 67 70 73
31 11 -52 83 -98 96 -75 41 0 -42 76 -96 98 -82 51 -10 -32 69 -93 99 -88 60 -21 -21
-13 -18 48 -72 90 -99 98 -87 67 -41 10 20 -50 74 -91 99 -97 85 -65 38 -8 -23 52 -76
39 47 -98 75 5 -81 96 -37 -48 98 -73 -6 82 -95 36 50 -98 72 8 -83 95 -34 -51 99
-76 -94 -18 75 94 19 -74 -95 -21 73 95 22 -72 -96 -24 71 96 26 -70 -96 -27 68 97 29
86 88 89 91 93 94 95 97 97 98 99 99 99 99 99 99 99 98 97 96 95 94 92 91
1 84 -90 10 78 -93 19 72 -96 28 66 -98 37 59 -99 45 51 -99 53 43 -99 61 34 -98
90 -73 48 -19 -12 42 -68 87 -98 99 -89 71 -46 16 15 -45 70 -89 98 -98 88 -69 44 -13
98 97 96 95 94 93 91 89 87 85 83 81 78 76 73 70 67 64 61 57 54 50 47 43
-99 10 98 -28 -92 46 83 -62 -71 76 57 -87 -40 94 22 -99 -3 99 -15 -96 34 90 -51 -80
41 5 -51 85 -99 91 -61 18 29 -70 95 -98 78 -41 -5 51 -85 99 -91 61 -18 -29 70 -95
-99 -77 -9 63 99 76 7 -65 -99 -74 -4 67 99 72 2 -69 -99 -70 0 71 99 69 -2 -73
-15 -28 -39 -50 -61 -70 -78 -85 -91 -95 -98 -99 -99 -97 -94 -89 -83 -75 -66 -57 -46 -34 -23 -10
56 -20 -18 54 -82 97 -98 84 -57 21 17 -53 81 -97 98 -84 58 -22 -16 52 -81 97 -98 85
3 -38 68 -89 99 -96 81 -56 23 11 -45 74 -93 99 -94 76 -49 15 20 -53 79 -95 99 -91
EOD
set view map
splot '$map1' matrix with image
