set terminal jpeg size 1200,1200
set output 'appliance-power-heatmap.jpg'
set title ""
unset key
set tic scale 0
# Color runs from white to green
set palette rgbformula -7,2,-7
set cbrange [-100:100]
set cblabel "POWER" font 'arial bold,26'
unset cbtics
set xrange [0.5:23.5]
set yrange [0.5:19.5]
set xlabel "TIME" font 'arial bold,26'
set ylabel "NODE" font 'arial bold,26'
$map1 << EOD
-11 82 -97 45 36 -94 87 -21 -59 99 -72 -3 77 -98 52 29 -91 91 -29 -52 98 -77 3 72
63 -63 -88 28 99 9 -95 -47 77 77 -47 -95 10 99 28 -88 -62 63 87 -29 -99 -8 95 46
1 12 -26 39 -52 63 -73 82 -89 95 -98 99 -99 96 -92 86 -77 68 -57 45 -32 18 -4 -9
-28 -65 -90 -99 -92 -69 -34 6 46 78 96 98 83 54 15 -25 -62 -88 -99 -93 -71 -37 3 43
-50 25 1 -29 53 -74 89 -98 99 -93 79 -60 36 -9 -17 43 -66 84 -95 99 -96 86 -69 46
-28 -90 53 76 -74 -55 89 31 -98 -4 99 -23 -93 48 79 -70 -60 87 36 -97 -9 99 -17 -95
63 -86 98 -98 86 -64 34 0 -34 64 -86 98 -98 86 -63 33 0 -34 64 -87 98 -98 86 -63
55 98 77 5 -70 -99 -64 13 82 97 48 -32 -91 -91 -31 49 97 81 12 -65 -99 -69 6 78
-38 -2 34 66 89 99 96 79 51 16 -20 -55 -81 -97 -99 -87 -62 -30 6 42 73 92 99 93
51 -89 99 -79 36 18 -68 96 -95 65 -16 -38 81 -99 87 -48 -4 56 -91 98 -75 29 25 -72
1 47 -84 99 -88 54 -5 -44 82 -99 90 -57 10 40 -80 99 -92 61 -14 -36 77 -98 93 -64
-2 -31 -57 -78 -92 -99 -97 -87 -70 -47 -19 9 37 62 82 95 99 96 84 65 41 13 -15 -43
51 28 3 -20 -44 -65 -81 -93 -99 -99 -92 -80 -62 -41 -18 6 31 53 73 87 96 99 96 87
90 -71 -41 99 -25 -82 81 27 -99 40 72 -89 -11 97 -54 -60 95 -4 -92 67 47 -98 20 85
-73 58 87 -39 -95 17 99 4 -98 -26 92 47 -81 -66 67 81 -48 -92 28 98 -6 -99 -16 96
-73 45 -11 -24 56 -81 96 -99 89 -68 37 -3 -32 63 -86 98 -98 85 -61 30 5 -39 69 -90
95 -3 -97 -49 69 88 -20 -99 -34 80 78 -37 -99 -17 89 66 -53 -96 0 96 52 -67 -89 17
77 84 -24 -99 -38 75 86 -20 -99 -41 73 87 -17 -98 -44 70 89 -14 -98 -47 68 90 -11 -97
25 -26 28 -30 31 -33 34 -36 37 -39 41 -42 44 -45 46 -48 49 -51 52 -54 55 -56 58 -59
0 95 -57 -61 93 4 -96 53 65 -91 -9 97 -48 -68 89 14 -98 44 72 -87 -19 99 -39 -75
EOD

set view map
splot '$map1' matrix with image
